# Rhino

v -7.140847206115723 -6.265644550323486 1
v -7.140847206115723 -6.265644550323486 -1
v -6.425740718841553 -6.997268676757813 1
v -6.425740718841553 -6.997268676757813 -1
v -5.667572975158691 -7.624057769775391 1
v -5.667572975158691 -7.624057769775391 -1
v -4.828587055206299 -8.181530952453613 1
v -4.828587055206299 -8.181530952453613 -1
v -3.919796228408814 -8.654244422912598 1
v -3.919796228408814 -8.654244422912598 -1
v -2.966346740722656 -9.025182723999023 1
v -2.966346740722656 -9.025182723999023 -1
v -2.017073154449463 -9.283228874206543 1
v -2.017073154449463 -9.283228874206543 -1
v -1.022840857505798 -9.444945335388184 1
v -1.022840857505798 -9.444945335388184 -1
v 2.645755557750817e-05 -9.500608444213867 1
v 2.645757376740221e-05 -9.500608444213867 -1
v 1.021600365638733 -9.445078849792481 1
v 1.021600365638733 -9.445078849792481 -1
v 1.992761373519898 -9.288478851318359 1
v 1.992761373519898 -9.288478851318359 -1
v 2.965113878250122 -9.025586128234863 1
v 2.965113878250122 -9.025586128234863 -1
v 3.91978931427002 -8.654245376586914 1
v 3.91978931427002 -8.654245376586914 -1
v 4.827487468719482 -8.182180404663086 1
v 4.827487468719482 -8.182180404663086 -1
v 5.647594451904297 -7.638868808746338 1
v 5.647594451904297 -7.638868808746338 -1
v 6.424800872802734 -6.998131275177002 1
v 6.424800872802734 -6.998131275177002 -1
v 7.140847206115723 -6.265644550323486 1
v 7.140847206115723 -6.265644550323486 -1
vt 0 0
vt 0 1
vt 0.06333304941654205 0
vt 0.06333304941654205 1
vt 0.1242301166057587 0
vt 0.1242301166057587 1
vt 0.186587318778038 0
vt 0.186587318778038 1
vt 0.25 0
vt 0.25 1
vt 0.3133330345153809 0
vt 0.3133330345153809 1
vt 0.3742301166057587 0
vt 0.3742301166057587 1
vt 0.4365873038768768 0
vt 0.4365873038768768 1
vt 0.5 0
vt 0.5 1
vt 0.5633330345153809 0
vt 0.5633330345153809 1
vt 0.6242300868034363 0
vt 0.6242300868034363 1
vt 0.6865873336791992 0
vt 0.6865873336791992 1
vt 0.75 0
vt 0.75 1
vt 0.8133330345153809 0
vt 0.8133330345153809 1
vt 0.8742300868034363 0
vt 0.8742300868034363 1
vt 0.9365873336791992 0
vt 0.9365873336791992 1
vt 1 0
vt 1 1
vn 0.7522135376930237 0.6589193940162659 4.216449672050926e-12
vn 0.7522135376930237 0.6589193940162659 4.21669817118886e-12
vn 0.676166296005249 0.7367490530014038 3.741520548244948e-12
vn 0.676166296005249 0.7367490530014038 3.742019281244291e-12
vn 0.5965741872787476 0.8025579452514648 3.386449107245504e-12
vn 0.5965741872787476 0.8025579452514648 3.385288577240075e-12
vn 0.5086923837661743 0.8609483242034912 2.807971303392387e-12
vn 0.5086923837661743 0.8609483242034912 2.80540673157359e-12
vn 0.4126500189304352 0.9108896851539612 2.280968382922799e-12
vn 0.4126500189304352 0.9108896851539612 2.281128194323023e-12
vn 0.3117124140262604 0.950176477432251 1.762566980388625e-12
vn 0.3117124140262604 0.950176477432251 1.766578203166169e-12
vn 0.2123165726661682 0.9772009253501892 1.169122632906083e-12
vn 0.2123165726661682 0.9772009253501892 1.172720449395259e-12
vn 0.1082338467240334 0.9941254854202271 5.885301469256421e-13
vn 0.1082338467240334 0.9941254854202271 5.899568485644158e-13
vn -5.557911663345294e-06 1 -4.983175330708356e-13
vn -5.557910299103241e-06 1 -4.969837475582439e-13
vn -0.1081015914678574 0.9941398501396179 -8.767780880665488e-13
vn -0.1081015914678574 0.9941398501396179 -8.739621439740608e-13
vn -0.2097757160663605 0.9777495265007019 -8.958554926531692e-13
vn -0.2097757160663605 0.9777495265007019 -8.936652958445313e-13
vn -0.3115854561328888 0.950218141078949 -2.03557440001112e-12
vn -0.3115854561328888 0.950218141078949 -2.035665906674478e-12
vn -0.4126473367214203 0.9108908772468567 -3.30736349765659e-12
vn -0.4126473367214203 0.9108908772468567 -3.310500961903329e-12
vn -0.5085759162902832 0.8610171675682068 -3.079977028627723e-12
vn -0.5085759162902832 0.8610171675682068 -3.083504805656556e-12
vn -0.5944830179214478 0.8041081428527832 -3.135218430358466e-12
vn -0.5944830179214478 0.8041081428527832 -3.13645203559032e-12
vn -0.6760674118995667 0.736839771270752 -3.941839476356845e-12
vn -0.6760674118995667 0.736839771270752 -3.94109571366652e-12
vn -0.7522128820419312 0.658920168876648 -4.213662838786769e-12
vn -0.7522128820419312 0.658920168876648 -4.213911771605572e-12
f 4/4/4 2/2/2 1/1/1 3/3/3
f 6/6/6 4/4/4 3/3/3 5/5/5
f 8/8/8 6/6/6 5/5/5 7/7/7
f 10/10/10 8/8/8 7/7/7 9/9/9
f 12/12/12 10/10/10 9/9/9 11/11/11
f 14/14/14 12/12/12 11/11/11 13/13/13
f 16/16/16 14/14/14 13/13/13 15/15/15
f 18/18/18 16/16/16 15/15/15 17/17/17
f 20/20/20 18/18/18 17/17/17 19/19/19
f 22/22/22 20/20/20 19/19/19 21/21/21
f 24/24/24 22/22/22 21/21/21 23/23/23
f 26/26/26 24/24/24 23/23/23 25/25/25
f 28/28/28 26/26/26 25/25/25 27/27/27
f 30/30/30 28/28/28 27/27/27 29/29/29
f 32/32/32 30/30/30 29/29/29 31/31/31
f 34/34/34 32/32/32 31/31/31 33/33/33
